Trial 1

0,87;
10200,101;
18314,84;
26088,95;
27900,83;
30000,103;

Trial 2

0, 105;
5427,87;
9211,76;
23237,71;
25708,107;
30000,100;


Trial 3

0, 106;
3688, 77;
6805, 94;
20943, 87;
28195, 73;
30000, 101;

Trial 4

0, 75;
8000, 100;
14503, 83;
20102, 72;
26695, 81;
30000, 96;

Trial 5

0, 90;
5976, 94;
7240, 105;
18346, 76;
21130, 104;
30000, 77;

Trial 6

0, 71;
6171, 84;
10186, 77;
17671, 81;
27224, 86;
30000, 72;

Trial 7

0, 85;
6802, 83;
11436, 91;
17724, 94;
23194, 90;
30000, 82;

Trial 8

0, 105;
4422, 88;
10436, 96;
12490, 70;
17590, 98;
30000, 104;

Trial 9

0, 92;
3694, 71;
10757, 85;
15154, 89;
23735, 94;
30000, 77;


Trial 10

0, 72;
2556,95;
11594, 102;
17563,74;
27380, 75;
30000, 71;


Trial 11

0, 92;
6544, 71;
10260,100;
15689, 80;
25957, 102;
30000, 89;

Trial 12

0, 87;
3537, 84;
7620, 82;
13853, 107;
23375, 93;
30000, 70;


