0
1.453125
1.734375
2.53125
3.328125
3.84375
4.125
4.5
4.640625
4.78125
4.921875
5.390625
5.671875
6.234375
6.46875
6.984375
7.21875
7.640625
7.734375
7.96875
8.484375
8.765625
9.28125
9.5625
10.03125
10.3125
10.59375
10.828125
11.109375
11.296875
11.578125
11.8125
12.09375
12.328125
12.609375
12.703125
12.890625
12.984375
13.125
13.359375
13.875
14.109375
14.671875
14.953125
15.421875
15.703125
16.21875
16.453125
16.875
16.96875
17.203125
17.71875
18.1875
18.46875
18.75
19.21875
19.5
19.734375
19.875
19.96875
20.25
20.71875
21
21.234375
21.46875
21.75
22.03125
22.265625
22.5
22.734375
22.96875
23.25
23.484375
23.71875
24
24.234375
24.46875
24.703125
24.984375
25.078125
25.171875
25.453125
25.734375
25.921875
26.203125
26.25
26.671875
26.90625
27.1875
27.28125
27.421875
27.65625
28.125
28.40625
28.640625
28.78125
29.109375
29.578125
29.8125
30.140625
30.28125
30.46875
30.5625
30.84375
31.078125
31.3125
31.546875
31.6875
31.828125
32.0625
32.578125
32.8125
33.09375
33.328125
33.5625
33.796875
34.078125
34.171875
34.265625
34.546875
34.828125
35.0625
35.296875
35.578125
35.8125
36.046875
36.28125
36.515625
36.65625
36.796875
36.890625
37.078125
37.3125
37.734375
38.0625
38.296875
38.53125
38.8125
39.046875
39.140625
39.28125
39.328125
39.5625
39.796875
39.890625
40.03125
40.3125
40.6875
40.78125
41.0625
41.53125
41.765625
42.046875
42.140625
42.28125
42.421875
42.515625
42.65625
42.75
42.890625
43.03125
43.265625
43.640625
43.78125
44.015625
44.53125
44.8125
45
45.28125
45.421875
45.5625
45.796875
46.078125
46.3125
46.546875
46.6875
46.828125
46.96875
47.0625
47.34375
47.4375
47.578125
47.8125
48.09375
48.1875
48.328125
48.46875
48.5625
48.703125
48.796875
48.9375
49.03125
49.3125
49.40625
49.59375
49.78125
49.875
50.015625
50.109375
50.53125
50.8125
51.09375
51.28125
51.46875
51.5625
51.84375
51.9375
52.078125
52.3125
52.40625
52.546875
52.6875
52.828125
53.0625
53.4375
53.578125
53.671875
53.8125
54.046875
54.328125
54.609375
54.75
54.84375
54.984375
55.078125
55.359375
55.40625
55.6875
55.828125
56.0625
56.296875
56.4375
56.578125
56.671875
56.8125
56.953125
57.046875
57.1875
57.328125
57.421875
57.5625
57.65625
57.796875
57.9375
58.078125
58.3125
58.59375
58.734375
58.828125
58.875
59.0625
59.296875
59.484375
59.53125
59.8125
59.90625
60.046875
60.1875
60.28125
60.421875
60.515625
60.75
60.890625
60.984375
61.265625
61.40625
61.546875
61.734375
62.015625
62.25
62.53125
62.625
62.765625
62.90625
63.046875
63.140625
63.28125
63.421875
63.5625
63.609375
63.703125
63.796875
63.84375
63.9375
63.984375
64.125
64.265625
64.3125
64.5
64.640625
64.78125
64.875
65.015625
65.15625
65.25
65.390625
65.53125
65.765625
66.046875
66.1875
66.28125
66.5625
66.703125
66.796875
66.84375
67.03125
67.125
67.265625
67.40625
67.546875
67.6875
67.78125
67.921875
68.015625
68.203125
68.296875
68.53125
68.8125
69.28125
69.5625
69.609375
69.75
69.890625
69.9375
70.03125
70.125
70.265625
70.359375
70.453125
70.5
70.640625
70.78125
71.015625
71.25
71.5125
71.775
71.8875
72
72.15
72.2625
72.375
72.525
72.75
72.875
72.96875
73.09375
73.21875
73.375
73.5
73.59375
73.71875
73.96875
74.21875
74.46875
74.75
75.03125
75.125
75.25
75.5
75.75
75.90625
76.03125
76.28125
76.40625
76.5
76.625
76.75
76.875
77.03125
77.28125
77.5
77.65625
77.78125
78.03125
78.15625
78.28125
78.40625
78.53125
78.65625
78.78125
78.90625
79.03125
79.15625
79.3125
79.40625
79.53125
79.65625
79.78125
79.90625
80.03125
80.28125
80.53125
80.78125
81.03125
81.15625
81.3125
81.4375
81.5625
81.8125
82.0625
82.3125
82.5625
82.8125
83.0625
83.3125
83.4375
83.5625
83.6875
83.8125
83.9375
84.0625
84.1875
84.3125
84.46875
84.5625
84.6875
84.8125
85.0625
85.3125
85.5625
85.6875
85.84375
85.96875
86.09375
86.21875
86.34375
86.46875
86.59375
86.875
87.03125
87.375
87.625
87.875
88.03125
88.125
88.40625
88.65625
88.90625
89.1875
89.6875
89.9375
90.15625
90.4375
90.75
90.9375
91.21875
91.5
92
92.28125
92.53125
92.78125
93.0625
93.5625
93.84375
94.09375
94.34375
94.59375
94.84375
95.09375
95.375
95.625
95.875
96.125
96.34375
96.59375
96.84375
97.125
97.34375
97.625
97.90625
98.03125
98.15625
98.40625
98.8125
98.9375
99.0625
99.1875
99.4375
99.59375
99.6875
99.9375
100.09375
100.1875
100.3125
100.46875
100.6875
100.96875
101.09375
101.21875
101.34375
101.46875
101.71875
101.96875
102.25
102.40625
102.46875
102.65625
102.875
102.96875
103.21875
103.4375
103.71875
103.96875
104.15625
104.21875
104.46875
104.71875
105
105.25
105.5
105.625
105.75
105.875
106
106.28125
106.375
106.5
106.78125
107.03125
107.15625
107.28125
107.53125
107.78125
107.90625
108.0625
108.1875
108.3125
108.5625
108.6875
108.8125
108.96875
109.0625
109.1875
109.3125
109.4375
109.59375
109.875
110.375
110.65625
111
111.1875
111.4375
111.8125
111.9375
112.21875
112.46875
112.59375
112.71875
112.96875
113.21875
113.34375
113.46875
113.71875
113.96875
114.125
114.21875
114.375
114.5
114.75
114.875
115
115.25
115.375
115.5
115.65625
115.78125
115.90625
116
116.125
116.25
116.40625
116.5
116.78125
117.15625
117.28125
117.5625
117.65625
117.78125
118.03125
118.15625
118.3125
118.4375
118.5625
118.6875
118.8125
119.09375
119.34375
119.59375
119.84375
120.125
120.34375
120.625
120.875
121.125
121.40625
121.5625
121.6875
121.875
122.1875
122.75
123
123.46875
123.71875
123.84375
124.0625
124.1875
124.3125
124.4375
124.75
124.9375
125.21875
125.46875
125.71875
126.03125
126.25
126.5
126.75
126.90625
127.03125
127.15625
127.25
127.40625
127.53125
127.65625
127.78125
127.90625
128.03125
128.3125
128.53125
128.65625
128.78125
129.0625
129.3125
129.4375
129.5625
129.8125
130.0625
130.21875
130.3125
130.4375
130.59375
130.84375
130.96875
131.09375
131.21875
131.34375
131.59375
131.6875
131.84375
132.09375
132.3125
132.46875
132.59375
132.84375
133.09375
133.21875
133.34375
133.46875
133.59375
133.71875
133.84375
134.125
134.40625
134.59375
134.75
134.875
135.1875
135.40625
135.6875
135.9375
136.1875
136.3125
136.4375
136.71875
137.03125
137.21875
137.5
137.78125
137.84375
138
138.25
138.5
138.78125
139.03125
139.25
139.5625
139.6875
139.8125
140.0625
140.3125
140.59375
140.75
140.9375
141.09375
141.34375
141.75
141.84375
142.125
142.40625
142.53125
142.625
142.90625
143.03125
143.15625
143.3125
143.40625
143.65625
143.9375
144.0625
144.1875
144.3125
144.4375
144.65625
144.8125
144.9375
145.0625
145.1875
145.3125
145.4375
145.5625
145.6875
145.8125
145.9375
146.0625
146.1875
146.34375
146.46875
146.59375
146.6875
146.9375
147.09375
147.21875
147.46875
147.71875
147.875
148
148.25
148.40625
148.5
148.75
149
149.125
149.25
149.375
149.5
149.625
149.78125
150.03125
150.15625
150.3125
150.4375
150.5625
150.84375
150.96875
151.0625
151.25
151.34375
151.5
151.625
151.75
151.875
152.125
152.375
152.5
152.625
152.75
152.875
153.15625
153.28125
153.40625
153.53125
153.65625
153.90625
154.0625
154.1875
154.3125
154.4375
154.8125
154.9375
155.25
155.46875
155.59375
155.71875
156
156.28125
156.53125
156.8125
157.09375
157.34375
157.65625
157.75
157.875
157.96875
158.125
158.28125
158.40625
158.5
158.59375
158.71875
158.8125
158.9375
159.03125
159.15625
159.21875
159.5
159.75
160.03125
160.3125
160.4375
160.59375
160.71875
160.84375
161.09375
161.25
161.34375
161.5
161.59375
161.75
161.875
162
162.125
162.40625
162.625
162.78125
162.90625
163.0625
163.15625
163.4375
163.5625
163.6875
163.8125
163.9375
164.09375
164.21875
164.34375
164.4375
164.59375
164.71875
164.84375
164.96875
165.125
165.21875
165.5
165.75
165.90625
166
166.125
166.25
166.40625
166.65625
166.78125
167.03125
167.28125
167.4375
167.5625
167.6875
167.8125
167.9375
168.0625
168.21875
168.28125
168.34375
168.625
168.84375
169.125
169.40625
169.65625
169.90625
170.1875
170.46875
170.71875
171
171.09375
171.40625
171.5
171.8125
172.40625
174
174.25
174.4375
174.53125