0
1
2
3
4
5
6
7
8
9
10
11
12
13
14
15
15.6667
16
17
17.6667
18
19
20
21
21.6667
22
23
23.6667
24
25
26
27
27.6667
28
29
30
31
31.6667
32
33
34
35
36
37
38
39
40
40.9896
42
43
43.6667
44
44.9896
45.9896
46.6562
47
47.6562
47.9896
48.9896
50
51
51.6667
52.3021
52.6667
53
54
54.3333
54.6562
54.9896
55.6562
55.9896
56.9896
57.9896
58.9896
60
60.6562
61.6562
62
63
64
65
66
66.9896
68
68.6562
69
69.6667
70
70.3333
70.6667
71
71.6562
72
73
74
75
76
76.9896
78
78.6771
78.9896
80
81
82
82.9896
84
84.6562
85
85.6667
86
86.3333
86.6667
87
87.6562
88
88.6562
89.6562
90
91
92
93
94
94.9896
96
96.6562
97
97.6562
98.3333
98.6667
99
99.6562
100
101
102
103
103.99
105
105.656
106
106.656
106.99
107.99
109
110
110.667
111
111.667
112
113
113.333
113.656
113.99
115
115.625
116.021
116.646
116.979
117.958
119.021
120.01
120.729
121.083
121.688
122.031
123.021
123.656
124
124.99
125.99
126.99
127.99
129
129.656
130.333
130.656
130.99
132
132.656
133
133.656
134
134.333
134.656
135
135.333
135.656
168.656
168.99
169.656
169.99
171
172.667
173
173.656
174
174.656
174.99
175.323
175.656
175.99
176.99
177.667
178.667
179
179.667
180
180.333
181
181.333
181.667
182
182.656
183.656
184
184.24
184.49
184.74
184.99
186.667
187
187.99
188.25
188.49
188.74
188.99
190.667
191
191.656
196
196.656
196.99
197.323
197.656
197.99
199
199.25
199.49
232.656
232.99
233.323
233.656
233.99
234.99
238.656
239
242
242.656
243
243.333
243.656
244.656
245
245.333
245.667
245.99
246.323
246.656
246.99
248
248.333
248.667
249.99
250.656
250.99
251.323
251.656
251.99
252.656
253.667
254.667
255
255.323
255.656
259.667
260
260.323
260.656
260.99
261.323
261.656
261.99
262.24
262.49
262.74
262.938
263.604
296.25
296.5
296.74
296.99
297.99
298.333
298.667
298.99
299.323
299.656
300.969
301.615
302.323
302.656
303
303.25
303.49
303.74
304
304.99
305.656
305.99
306.323
306.656
306.99
307.667
308.667
309.656
310
311
311.333
311.667
312
313
313.667
314
314.167
314.333
314.5
314.667
314.833
314.99
315.333
315.667
316
319.667
320
320.167
320.5
320.667
320.833
321
322.667
323
323.167
323.333
323.667
323.833
324
325.667
326
326.167
326.333
326.5
326.833
327
327.667
356
356.323
356.656
357.667
358.667
358.99
359.323
359.656
360
361.323
361.667
361.99
362.323
362.656
363
363.167
363.333
363.5
363.833
364
365
365.167
365.333
365.5
365.667
365.833
366
366.323
366.667
367
367.25
367.5
367.75
368
368.667
369
369.323
369.667
370.323
370.667
371
372
372.167
372.333
372.5
372.667
372.833
373
373.167
373.333
373.5
373.667
373.833
374
375
375.323
375.667
376
376.323
376.667
377
377.323
377.667
378
378.323
378.667
379
379.323
379.667
380
380.323
380.667
381
381.323
381.667
382
382.323
382.667
383
383.323
383.667
384
384.323
384.667
385
385.323
385.667
386
386.323
386.667
387
387.323
387.667
