0.65625
0.989583
1.65625
1.98958
3
4.66667
5
5.65625
6
6.65625
6.98958
7.32292
7.65625
7.98958
8.98958
9.66667
10.6667
11
11.6667
12
12.3333
13
13.3333
13.6667
14
14.6562
15.6562
16
16.2396
16.4896
16.7396
16.9896
18.6667
19
19.9896
20.25
20.4896
20.7396
20.9896
22.6667
23
23.6562
28
28.6562
28.9896
29.3229
29.6562
29.9896
31
31.25
31.4896
64.6562
64.9896
65.3229
65.6562
65.9896
66.9896
70.6562
71
74
74.6562
75
75.3333
75.6562
76.6562
77
77.3333
77.6667
77.9896
78.3229
78.6562
78.9896
80
80.3333
80.6667
81.9896
82.6562
82.9896
83.3229
83.6562
83.9896
84.6562
85.6667
86.6667
87
87.3229
87.6562
91.6667
92
92.3229
92.6562
92.9896
93.3229
93.6562
93.9896
94.2396
94.4896
94.7396
94.9375
95.6042
128.25
128.5
128.74
128.99
129.99
130.333
130.667
130.99
131.323
131.656
132.969
133.615
134.323
134.656
135
135.25
135.49
135.74
136
136.99
137.656
137.99
138.323
138.656
138.99
139.667
140.667
141.656
142
143
143.333
143.667
144
145
145.667
146
146.167
146.333
146.5
146.667
146.833
146.99
147.333
147.667
148
151.667
152
152.167
152.5
152.667
152.833
153
154.667
155
155.167
155.333
155.667
155.833
156
157.667
158
158.167
158.333
158.5
158.833
159
159.667
188
188.323
188.656
189.667
190.667
190.99
191.323
191.656
192
193.323
193.667
193.99
194.323
194.656
195
195.167
195.333
195.5
195.833
196
197
197.167
197.333
197.5
197.667
197.833
198
198.323
198.667
199
199.25
199.5
199.75
200
200.667
201
201.323
201.667
202.323
202.667
203
204
204.167
204.333
204.5
204.667
204.833
205
205.167
205.333
205.5
205.667
205.833
206
207
207.323
207.667
208
208.323
208.667
209
209.323
209.667
210
210.323
210.667
211
211.323
211.667
212
212.323
212.667
213
213.323
213.667
214
214.323
214.667
215
215.323
215.667
216
216.323
216.667
217
217.323
217.667
218
218.323
218.667
219
219.323
219.667
