3.9375
4.125
7.3125
7.6875
8.0625
15
16.5
18.75
19.3125
19.5
20.25
23.25
25.5
27
31.125
31.875
32.0625
32.8125
33.5625
34.3125
35.0625
36.5625
37.125
37.3125
38.0625
39.5625
40.125
40.3125
40.875
41.0625
41.625
41.8125
44.0625
44.625
44.8125
45.375
46.125
46.3125
47.625
47.8125
50.0625
50.8125
51.375
51.5625
54.375
56.625
56.8125
58.125
62.0625
62.8125
63.5625
65.625
65.8125
66.375
66.5625
67.125
69.5625
70.125
71.0625
73.9875
76.0125
77.0125
77.7625
78.5125
81.6375
81.8875
82.3875
82.6375
83.1375
83.3875
84.6375
84.8875
85.1375
96.3875
99.2625
100.0125
100.7625
102.0125
103.7625
106.8875
107.3875
108.1375
108.3875
108.6375
109.8875
110.6375
112.0125
112.7625
113.7625
114.7625
115.0125
115.2625
117.6375
117.7625
118.6375
119.1375
120.1375
123.0125
128.1375
131.3875
139.8875
141.3875
142.1375
143.1375
144.2625
144.8875
145.2625
146.3875
148.2625
149.0125
149.3875
149.7625
151.3875
152.1375
152.5125
154.2625
155.2625
155.7625
156.0125
156.8875
157.1375
157.3875
159.0125
159.2625
159.7625
160.0125
161.3875
162.0125
162.3875
163.5125
164.0125
164.5125
165.5125
165.7625
170.5125

